Lab1DigitalLock/simulation/qsim/DigitalLockController.msim.vcd
$comment
	File created using the following command:
		vcd file DigitalLockController.msim.vcd -direction
$end
$date
	Thu Sep  2 02:37:11 2021
$end
$version
	ModelSim Version 2020.1
$end
$timescale
	1ps
$end

$scope module DigitalLockController_vlg_vec_tst $end
$var reg 1 ! Enter $end
$var reg 1 " Reset_Lock $end
$var reg 1 # X $end
$var wire 1 $ HEXout [0] $end
$var wire 1 % HEXout [1] $end
$var wire 1 & HEXout [2] $end
$var wire 1 ' HEXout [3] $end
$var wire 1 ( HEXout [4] $end
$var wire 1 ) HEXout [5] $end
$var wire 1 * HEXout [6] $end
$var wire 1 + Open $end
$var wire 1 , State [3] $end
$var wire 1 - State [2] $end
$var wire 1 . State [1] $end
$var wire 1 / State [0] $end

$scope module i1 $end
$var wire 1 0 gnd $end
$var wire 1 1 vcc $end
$var wire 1 2 unknown $end
$var tri1 1 3 devclrn $end
$var tri1 1 4 devpor $end
$var tri1 1 5 devoe $end
$var wire 1 6 Open~output_o $end
$var wire 1 7 State[0]~output_o $end
$var wire 1 8 State[1]~output_o $end
$var wire 1 9 State[2]~output_o $end
$var wire 1 : State[3]~output_o $end
$var wire 1 ; HEXout[6]~output_o $end
$var wire 1 < HEXout[5]~output_o $end
$var wire 1 = HEXout[4]~output_o $end
$var wire 1 > HEXout[3]~output_o $end
$var wire 1 ? HEXout[2]~output_o $end
$var wire 1 @ HEXout[1]~output_o $end
$var wire 1 A HEXout[0]~output_o $end
$var wire 1 B Enter~input_o $end
$var wire 1 C Reset_Lock~input_o $end
$var wire 1 D X~input_o $end
$var wire 1 E State~2_combout $end
$var wire 1 F State[0]~reg0_q $end
$var wire 1 G State~1_combout $end
$var wire 1 H State[1]~reg0_q $end
$var wire 1 I State~0_combout $end
$var wire 1 J State[2]~reg0_q $end
$var wire 1 K Decoder0~0_combout $end
$var wire 1 L comb_43|WideOr6~0_combout $end
$var wire 1 M comb_43|WideOr5~0_combout $end
$var wire 1 N comb_43|WideOr4~0_combout $end
$var wire 1 O comb_43|WideOr3~0_combout $end
$var wire 1 P comb_43|Decoder0~0_combout $end
$var wire 1 Q comb_43|WideOr1~0_combout $end
$var wire 1 R comb_43|WideOr0~0_combout $end
$upscope $end
$upscope $end
$enddefinitions $end
#0
$dumpvars
0!
0"
0#
1*
0)
0(
0'
0&
0%
0$
0+
0/
0.
0-
0,
00
11
x2
13
14
15
06
07
08
09
0:
1;
0<
0=
0>
0?
0@
0A
0B
0C
0D
0E
0F
0G
0H
0I
0J
0K
1L
0M
0N
0O
0P
0Q
0R
$end
#10000
1#
1D
1E
#20000
1!
1B
1F
17
1/
1R
1O
1N
1M
1G
0E
1<
1=
1>
1A
1$
1'
1(
1)
#30000
0#
0D
0G
#40000
0!
0B
#50000
1#
1D
1G
#60000
1!
1B
1H
0F
07
18
1.
0/
0R
1P
0O
0N
0L
1E
0;
0=
0>
1?
0A
0$
1&
0'
0(
0*
#70000
0#
0D
0G
0E
#80000
0!
0B
#100000
1!
1B
0H
08
0.
0P
0M
1L
1;
0<
0?
0&
0)
1*
#120000
0!
0B
#140000
1!
1B
#160000
0!
0B
#170000
1#
1D
1E
#180000
1!
1B
1F
17
1/
1R
1O
1N
1M
1G
0E
1<
1=
1>
1A
1$
1'
1(
1)
#190000
0#
0D
0G
#200000
0!
0B
#220000
1!
1B
0F
07
0/
0R
0O
0N
0M
0<
0=
0>
0A
0$
0'
0(
0)
#240000
0!
0B
#250000
1#
1D
1E
#260000
1!
1B
1F
17
1/
1R
1O
1N
1M
1G
0E
1<
1=
1>
1A
1$
1'
1(
1)
#270000
0#
0D
0G
#280000
0!
0B
#290000
1"
1C
#300000
1!
1B
0F
07
0/
0R
0O
0N
0M
0<
0=
0>
0A
0$
0'
0(
0)
#310000
0"
0C
#320000
0!
0B
#330000
1#
1D
1E
#340000
1!
1B
1F
17
1/
1R
1O
1N
1M
1G
0E
1<
1=
1>
1A
1$
1'
1(
1)
#350000
0#
0D
0G
#360000
0!
0B
#370000
1#
1D
1G
#380000
1!
1B
1H
0F
07
18
1.
0/
0R
1P
0O
0N
0L
1E
0;
0=
0>
1?
0A
0$
1&
0'
0(
0*
#390000
0#
0D
0G
0E
#400000
0!
0B
#410000
1#
1D
1G
1E
#420000
1!
1B
1F
17
1/
0P
1N
0G
0E
1=
0?
0&
1(
#430000
0#
0D
1I
#440000
0!
0B
#460000
1!
1B
1J
0H
0F
07
08
19
1-
0.
0/
1R
1O
0M
0I
0<
1>
1A
1$
1'
0)
#480000
0!
0B
#490000
1#
1D
1I
1E
#500000
1!
1B
1F
17
1/
0R
1Q
0O
1G
0E
0>
1@
0A
0$
1%
0'
#510000
0#
0D
0I
0G
#520000
0!
0B
#530000
1#
1D
1I
1G
#540000
1!
1B
1H
0F
07
18
1.
0/
0N
1E
0=
0(
#550000
0#
0D
0I
0G
0E
#560000
0!
0B
#570000
1#
1D
1I
1G
1E
#580000
1!
1B
1F
17
1/
0Q
1O
1N
1M
1L
1K
16
1;
1<
1=
1>
0@
0%
1'
1(
1)
1*
1+
#590000
0#
0D
#600000
0!
0B
#610000
1"
1C
0I
0G
0E
#620000
1!
1B
0J
0H
0F
07
08
09
0-
0.
0/
0O
0N
0M
0K
06
0<
0=
0>
0'
0(
0)
0+
#630000
0"
0C
#640000
0!
0B
#660000
1!
1B
#680000
0!
0B
#690000
1#
1D
1E
#700000
1!
1B
1F
17
1/
1R
1O
1N
1M
1G
0E
1<
1=
1>
1A
1$
1'
1(
1)
#710000
0#
0D
0G
#720000
0!
0B
#740000
1!
1B
0F
07
0/
0R
0O
0N
0M
0<
0=
0>
0A
0$
0'
0(
0)
#760000
0!
0B
#770000
1#
1D
1E
#780000
1!
1B
1F
17
1/
1R
1O
1N
1M
1G
0E
1<
1=
1>
1A
1$
1'
1(
1)
#790000
0#
0D
0G
#800000
0!
0B
#820000
1!
1B
0F
07
0/
0R
0O
0N
0M
0<
0=
0>
0A
0$
0'
0(
0)
#840000
0!
0B
#850000
1#
1D
1E
#860000
1!
1B
1F
17
1/
1R
1O
1N
1M
1G
0E
1<
1=
1>
1A
1$
1'
1(
1)
#870000
0#
0D
0G
#880000
0!
0B
#900000
1!
1B
0F
07
0/
0R
0O
0N
0M
0<
0=
0>
0A
0$
0'
0(
0)
#920000
0!
0B
#930000
1"
1C
#940000
1!
1B
#950000
0"
0C
#960000
0!
0B
#980000
1!
1B
#1000000
0!
0B
#1010000
1#
1D
1E
#1020000
1!
1B
1F
17
1/
1R
1O
1N
1M
1G
0E
1<
1=
1>
1A
1$
1'
1(
1)
#1030000
0#
0D
0G
#1040000
0!
0B
#1060000
1!
1B
0F
07
0/
0R
0O
0N
0M
0<
0=
0>
0A
0$
0'
0(
0)
#1080000
0!
0B
#1090000
1#
1D
1E
#1100000
1!
1B
1F
17
1/
1R
1O
1N
1M
1G
0E
1<
1=
1>
1A
1$
1'
1(
1)
#1110000
0#
0D
0G
#1120000
0!
0B
#1140000
1!
1B
0F
07
0/
0R
0O
0N
0M
0<
0=
0>
0A
0$
0'
0(
0)
#1160000
0!
0B
#1170000
1#
1D
1E
#1180000
1!
1B
1F
17
1/
1R
1O
1N
1M
1G
0E
1<
1=
1>
1A
1$
1'
1(
1)
#1190000
0#
0D
0G
#1200000
0!
0B
#1210000
1#
1D
1G
#1220000
1!
1B
1H
0F
07
18
1.
0/
0R
1P
0O
0N
0L
1E
0;
0=
0>
1?
0A
0$
1&
0'
0(
0*
#1230000
0#
0D
0G
0E
#1240000
0!
0B
#1250000
1"
1C
#1260000
1!
1B
0H
08
0.
0P
0M
1L
1;
0<
0?
0&
0)
1*
#1270000
0"
0C
#1280000
0!
0B
#1300000
1!
1B
#1320000
0!
0B
#1340000
1!
1B
#1360000
0!
0B
#1380000
1!
1B
#1400000
0!
0B
#1410000
1#
1D
1E
#1420000
1!
1B
1F
17
1/
1R
1O
1N
1M
1G
0E
1<
1=
1>
1A
1$
1'
1(
1)
#1430000
0#
0D
0G
#1440000
0!
0B
#1460000
1!
1B
0F
07
0/
0R
0O
0N
0M
0<
0=
0>
0A
0$
0'
0(
0)
#1480000
0!
0B
#1500000
1!
1B
#1520000
0!
0B
#1540000
1!
1B
#1560000
0!
0B
#1570000
1"
1C
#1580000
1!
1B
#1590000
0"
0C
#1600000
0!
0B
#1610000
1#
1D
1E
#1620000
1!
1B
1F
17
1/
1R
1O
1N
1M
1G
0E
1<
1=
1>
1A
1$
1'
1(
1)
#1640000
0!
0B
#1660000
1!
1B
1H
0F
07
18
1.
0/
0R
1P
0O
0N
0L
1E
0;
0=
0>
1?
0A
0$
1&
0'
0(
0*
#1680000
0!
0B
#1700000
1!
1B
1F
17
1/
0P
1N
0G
0E
1=
0?
0&
1(
#1720000
0!
0B
#1740000
1!
1B
0H
0F
07
08
0.
0/
0N
0M
1L
1E
1;
0<
0=
0(
0)
1*
#1760000
0!
0B
#1780000
1!
1B
1F
17
1/
1R
1O
1N
1M
1G
0E
1<
1=
1>
1A
1$
1'
1(
1)
#1800000
0!
0B
#1820000
1!
1B
1H
0F
07
18
1.
0/
0R
1P
0O
0N
0L
1E
0;
0=
0>
1?
0A
0$
1&
0'
0(
0*
#1840000
0!
0B
#1860000
1!
1B
1F
17
1/
0P
1N
0G
0E
1=
0?
0&
1(
#1880000
0!
0B
#1890000
1"
0#
1C
0D
#1900000
1!
1B
0H
0F
07
08
0.
0/
0N
0M
1L
1;
0<
0=
0(
0)
1*
#1910000
0"
0C
#1920000
0!
0B
#1930000
1#
1D
1E
#1940000
1!
1B
1F
17
1/
1R
1O
1N
1M
1G
0E
1<
1=
1>
1A
1$
1'
1(
1)
#1960000
0!
0B
#1980000
1!
1B
1H
0F
07
18
1.
0/
0R
1P
0O
0N
0L
1E
0;
0=
0>
1?
0A
0$
1&
0'
0(
0*
#2000000
0!
0B
#2020000
1!
1B
1F
17
1/
0P
1N
0G
0E
1=
0?
0&
1(
#2040000
0!
0B
#2060000
1!
1B
0H
0F
07
08
0.
0/
0N
0M
1L
1E
1;
0<
0=
0(
0)
1*
#2080000
0!
0B
#2090000
0#
0D
0E
#2100000
1!
1B
#2110000
1#
1D
1E
#2120000
0!
0B
#2140000
1!
1B
1F
17
1/
1R
1O
1N
1M
1G
0E
1<
1=
1>
1A
1$
1'
1(
1)
#2160000
0!
0B
#2180000
1!
1B
1H
0F
07
18
1.
0/
0R
1P
0O
0N
0L
1E
0;
0=
0>
1?
0A
0$
1&
0'
0(
0*
#2200000
0!
0B
#2220000
1!
1B
1F
17
1/
0P
1N
0G
0E
1=
0?
0&
1(
#2230000
0#
0D
1I
#2240000
0!
0B
#2260000
1!
1B
1J
0H
0F
07
08
19
1-
0.
0/
1R
1O
0M
0I
0<
1>
1A
1$
1'
0)
#2280000
0!
0B
#2300000
1!
1B
0J
09
0-
0R
0O
0N
1L
1;
0=
0>
0A
0$
0'
0(
1*
#2320000
0!
0B
#2340000
1!
1B
#2360000
0!
0B
#2380000
1!
1B
#2400000
0!
0B
#2420000
1!
1B
#2440000
0!
0B
#2460000
1!
1B
#2480000
0!
0B
#2500000
1!
1B
#2520000
0!
0B
#2540000
1!
1B
#2560000
0!
0B
#2580000
1!
1B
#2600000
0!
0B
#2620000
1!
1B
#2640000
0!
0B
#2660000
1!
1B
#2680000
0!
0B
#2700000
1!
1B
#2720000
0!
0B
#2740000
1!
1B
#2760000
0!
0B
#2780000
1!
1B
#2800000
0!
0B
#2820000
1!
1B
#2840000
0!
0B
#2860000
1!
1B
#2880000
0!
0B
#2900000
1!
1B
#2920000
0!
0B
#2940000
1!
1B
#2960000
0!
0B
#2980000
1!
1B
#3000000
0!
0B
#3020000
1!
1B
#3040000
0!
0B
#3060000
1!
1B
#3080000
0!
0B
#3100000
1!
1B
#3120000
0!
0B
#3140000
1!
1B
#3160000
0!
0B
#3180000
1!
1B
#3200000
0!
0B
#3220000
1!
1B
#3240000
0!
0B
#3260000
1!
1B
#3280000
0!
0B
#3300000
1!
1B
#3320000
0!
0B
#3340000
1!
1B
#3360000
0!
0B
#3380000
1!
1B
#3400000
0!
0B
#3420000
1!
1B
#3440000
0!
0B
#3460000
1!
1B
#3480000
0!
0B
#3500000
1!
1B
#3520000
0!
0B
#3540000
1!
1B
#3560000
0!
0B
#3580000
1!
1B
#3600000
0!
0B
#3620000
1!
1B
#3640000
0!
0B
#3660000
1!
1B
#3680000
0!
0B
#3700000
1!
1B
#3720000
0!
0B
#3740000
1!
1B
#3760000
0!
0B
#3780000
1!
1B
#3800000
0!
0B
#3820000
1!
1B
#3840000
0!
0B
#3860000
1!
1B
#3880000
0!
0B
#3900000
1!
1B
#3920000
0!
0B
#3940000
1!
1B
#3960000
0!
0B
#3980000
1!
1B
#4000000
0!
0B
#4020000
1!
1B
#4040000
0!
0B
#4060000
1!
1B
#4080000
0!
0B
#4100000
1!
1B
#4120000
0!
0B
#4140000
1!
1B
#4160000
0!
0B
#4180000
1!
1B
#4200000
0!
0B
#4220000
1!
1B
#4240000
0!
0B
#4260000
1!
1B
#4280000
0!
0B
#4300000
1!
1B
#4320000
0!
0B
#4340000
1!
1B
#4360000
0!
0B
#4380000
1!
1B
#4400000
0!
0B
#4420000
1!
1B
#4440000
0!
0B
#4460000
1!
1B
#4480000
0!
0B
#4500000
1!
1B
#4520000
0!
0B
#4540000
1!
1B
#4560000
0!
0B
#4580000
1!
1B
#4600000
0!
0B
#4620000
1!
1B
#4640000
0!
0B
#4660000
1!
1B
#4680000
0!
0B
#4700000
1!
1B
#4720000
0!
0B
#4740000
1!
1B
#4760000
0!
0B
#4780000
1!
1B
#4800000
0!
0B
#4820000
1!
1B
#4840000
0!
0B
#4860000
1!
1B
#4880000
0!
0B
#4900000
1!
1B
#4920000
0!
0B
#4940000
1!
1B
#4960000
0!
0B
#4980000
1!
1B
#5000000
0!
0B
#5020000
1!
1B
#5040000
0!
0B
#5060000
1!
1B
#5080000
0!
0B
#5100000
1!
1B
#5120000
0!
0B
#5140000
1!
1B
#5160000
0!
0B
#5180000
1!
1B
#5200000
0!
0B
#5220000
1!
1B
#5240000
0!
0B
#5260000
1!
1B
#5280000
0!
0B
#5300000
1!
1B
#5320000
0!
0B
#5340000
1!
1B
#5360000
0!
0B
#5380000
1!
1B
#5400000
0!
0B
#5420000
1!
1B
#5440000
0!
0B
#5460000
1!
1B
#5480000
0!
0B
#5500000
1!
1B
#5520000
0!
0B
#5540000
1!
1B
#5560000
0!
0B
#5580000
1!
1B
#5600000
0!
0B
#5620000
1!
1B
#5640000
0!
0B
#5660000
1!
1B
#5680000
0!
0B
#5700000
1!
1B
#5720000
0!
0B
#5740000
1!
1B
#5760000
0!
0B
#5780000
1!
1B
#5800000
0!
0B
#5820000
1!
1B
#5840000
0!
0B
#5860000
1!
1B
#5880000
0!
0B
#5900000
1!
1B
#5920000
0!
0B
#5940000
1!
1B
#5960000
0!
0B
#5980000
1!
1B
#6000000
0!
0B
#6020000
1!
1B
#6040000
0!
0B
#6060000
1!
1B
#6080000
0!
0B
#6100000
1!
1B
#6120000
0!
0B
#6140000
1!
1B
#6160000
0!
0B
#6180000
1!
1B
#6200000
0!
0B
#6220000
1!
1B
#6240000
0!
0B
#6260000
1!
1B
#6280000
0!
0B
#6300000
1!
1B
#6320000
0!
0B
#6340000
1!
1B
#6360000
0!
0B
#6380000
1!
1B
#6400000
0!
0B
#6420000
1!
1B
#6440000
0!
0B
#6460000
1!
1B
#6480000
0!
0B
#6500000
1!
1B
#6520000
0!
0B
#6540000
1!
1B
#6560000
0!
0B
#6580000
1!
1B
#6600000
0!
0B
#6620000
1!
1B
#6640000
0!
0B
#6660000
1!
1B
#6680000
0!
0B
#6700000
1!
1B
#6720000
0!
0B
#6740000
1!
1B
#6760000
0!
0B
#6780000
1!
1B
#6800000
0!
0B
#6820000
1!
1B
#6840000
0!
0B
#6860000
1!
1B
#6880000
0!
0B
#6900000
1!
1B
#6920000
0!
0B
#6940000
1!
1B
#6960000
0!
0B
#6980000
1!
1B
#7000000
0!
0B
#7020000
1!
1B
#7040000
0!
0B
#7060000
1!
1B
#7080000
0!
0B
#7100000
1!
1B
#7120000
0!
0B
#7140000
1!
1B
#7160000
0!
0B
#7180000
1!
1B
#7200000
0!
0B
#7220000
1!
1B
#7240000
0!
0B
#7260000
1!
1B
#7280000
0!
0B
#7300000
1!
1B
#7320000
0!
0B
#7340000
1!
1B
#7360000
0!
0B
#7380000
1!
1B
#7400000
0!
0B
#7420000
1!
1B
#7440000
0!
0B
#7460000
1!
1B
#7480000
0!
0B
#7500000
1!
1B
#7520000
0!
0B
#7540000
1!
1B
#7560000
0!
0B
#7580000
1!
1B
#7600000
0!
0B
#7620000
1!
1B
#7640000
0!
0B
#7660000
1!
1B
#7680000
0!
0B
#7700000
1!
1B
#7720000
0!
0B
#7740000
1!
1B
#7760000
0!
0B
#7780000
1!
1B
#7800000
0!
0B
#7820000
1!
1B
#7840000
0!
0B
#7860000
1!
1B
#7880000
0!
0B
#7900000
1!
1B
#7920000
0!
0B
#7940000
1!
1B
#7960000
0!
0B
#7980000
1!
1B
#8000000
0!
0B
#8020000
1!
1B
#8040000
0!
0B
#8060000
1!
1B
#8080000
0!
0B
#8100000
1!
1B
#8120000
0!
0B
#8140000
1!
1B
#8160000
0!
0B
#8180000
1!
1B
#8200000
0!
0B
#8220000
1!
1B
#8240000
0!
0B
#8260000
1!
1B
#8280000
0!
0B
#8300000
1!
1B
#8320000
0!
0B
#8340000
1!
1B
#8360000
0!
0B
#8380000
1!
1B
#8400000
0!
0B
#8420000
1!
1B
#8440000
0!
0B
#8460000
1!
1B
#8480000
0!
0B
#8500000
1!
1B
#8520000
0!
0B
#8540000
1!
1B
#8560000
0!
0B
#8580000
1!
1B
#8600000
0!
0B
#8620000
1!
1B
#8640000
0!
0B
#8660000
1!
1B
#8680000
0!
0B
#8700000
1!
1B
#8720000
0!
0B
#8740000
1!
1B
#8760000
0!
0B
#8780000
1!
1B
#8800000
0!
0B
#8820000
1!
1B
#8840000
0!
0B
#8860000
1!
1B
#8880000
0!
0B
#8900000
1!
1B
#8920000
0!
0B
#8940000
1!
1B
#8960000
0!
0B
#8980000
1!
1B
#9000000
0!
0B
#9020000
1!
1B
#9040000
0!
0B
#9060000
1!
1B
#9080000
0!
0B
#9100000
1!
1B
#9120000
0!
0B
#9140000
1!
1B
#9160000
0!
0B
#9180000
1!
1B
#9200000
0!
0B
#9220000
1!
1B
#9240000
0!
0B
#9260000
1!
1B
#9280000
0!
0B
#9300000
1!
1B
#9320000
0!
0B
#9340000
1!
1B
#9360000
0!
0B
#9380000
1!
1B
#9400000
0!
0B
#9420000
1!
1B
#9440000
0!
0B
#9460000
1!
1B
#9480000
0!
0B
#9500000
1!
1B
#9520000
0!
0B
#9540000
1!
1B
#9560000
0!
0B
#9580000
1!
1B
#9600000
0!
0B
#9620000
1!
1B
#9640000
0!
0B
#9660000
1!
1B
#9680000
0!
0B
#9700000
1!
1B
#9720000
0!
0B
#9740000
1!
1B
#9760000
0!
0B
#9780000
1!
1B
#9800000
0!
0B
#9820000
1!
1B
#9840000
0!
0B
#9860000
1!
1B
#9880000
0!
0B
#9900000
1!
1B
#9920000
0!
0B
#9940000
1!
1B
#9960000
0!
0B
#9980000
1!
1B
